<svg width="72" height="70" viewBox="0 0 72 70" fill="none" xmlns="http://www.w3.org/2000/svg">
<path d="M1.4931 0.0280762H70.478C70.8047 0.0280762 71.1181 0.157855 71.3491 0.388876C71.5801 0.619898 71.7099 0.933237 71.7099 1.25995V55.4624C71.7099 55.7891 71.5801 56.1024 71.3491 56.3335C71.1181 56.5645 70.8047 56.6943 70.478 56.6943H1.4931C1.16639 56.6943 0.853077 56.5645 0.622056 56.3335C0.391035 56.1024 0.26123 55.7891 0.26123 55.4624V1.25995C0.26123 0.933237 0.391035 0.619898 0.622056 0.388876C0.853077 0.157855 1.16639 0.0280762 1.4931 0.0280762Z" fill="#005C5D"/>
<path d="M8.88422 7.41931H63.0867C63.4134 7.41931 63.7267 7.54909 63.9577 7.78011C64.1888 8.01113 64.3185 8.32447 64.3185 8.65119V48.0711C64.3185 48.3979 64.1888 48.7112 63.9577 48.9422C63.7267 49.1732 63.4134 49.303 63.0867 49.303H8.88422C8.5575 49.303 8.24419 49.1732 8.01317 48.9422C7.78215 48.7112 7.65234 48.3979 7.65234 48.0711V8.65119C7.65234 8.32447 7.78215 8.01113 8.01317 7.78011C8.24419 7.54909 8.5575 7.41931 8.88422 7.41931Z" fill="#6CCA98"/>
<path d="M42.1454 18.5062C42.1454 19.7244 41.7842 20.9152 41.1074 21.9281C40.4306 22.941 39.4686 23.7305 38.3431 24.1967C37.2176 24.6629 35.9792 24.7849 34.7844 24.5472C33.5896 24.3095 32.4921 23.7229 31.6307 22.8615C30.7693 22.0001 30.1827 20.9026 29.945 19.7078C29.7073 18.513 29.8293 17.2746 30.2955 16.1491C30.7617 15.0236 31.5512 14.0616 32.5641 13.3848C33.577 12.708 34.7678 12.3468 35.986 12.3468C37.6196 12.3468 39.1862 12.9957 40.3413 14.1508C41.4965 15.3059 42.1454 16.8726 42.1454 18.5062Z" fill="#88EDB3"/>
<path d="M26.1306 17.2743H21.2031V19.738H26.1306V17.2743Z" fill="white"/>
<path d="M50.7678 17.2743H45.8403V19.738H50.7678V17.2743Z" fill="white"/>
<path d="M39.6813 28.3612H32.29V30.825H39.6813V28.3612Z" fill="#FDD7AD"/>
<path d="M29.8265 28.3612H26.1309V30.825H29.8265V28.3612Z" fill="#F9C795"/>
<path d="M33.5219 33.2887H22.4351V35.7524H33.5219V33.2887Z" fill="#FDD7AD"/>
<path d="M49.5361 33.2887H38.4492V35.7524H49.5361V33.2887Z" fill="#F9C795"/>
<path d="M32.2904 38.2162H29.8267V40.6799H32.2904V38.2162Z" fill="#F9C795"/>
<path d="M42.1447 38.2162H34.7534V40.6799H42.1447V38.2162Z" fill="#FDD7AD"/>
<path d="M56.1616 57.9322L63.0868 69.0191L65.5505 64.0916H70.478L63.9348 53.6207L56.1616 57.9322Z" fill="#03827E"/>
<path d="M55.2398 57.9323L48.3146 69.0191L45.8508 64.0916H40.9233L47.5282 53.5222L55.2398 57.9323Z" fill="#03827E"/>
<path d="M66.7826 48.0711C66.7826 50.2639 66.1324 52.4074 64.9142 54.2306C63.6959 56.0539 61.9644 57.4749 59.9385 58.314C57.9127 59.1532 55.6834 59.3727 53.5328 58.9449C51.3822 58.5172 49.4067 57.4612 47.8561 55.9107C46.3056 54.3602 45.2497 52.3847 44.8219 50.2341C44.3941 48.0834 44.6137 45.8542 45.4528 43.8284C46.292 41.8025 47.713 40.071 49.5362 38.8527C51.3595 37.6345 53.503 36.9843 55.6958 36.9843C58.6362 36.9843 61.4562 38.1523 63.5354 40.2315C65.6146 42.3107 66.7826 45.1307 66.7826 48.0711Z" fill="#FDD7AD"/>
<path d="M55.6955 55.4624C54.7244 55.4651 53.7624 55.2752 52.8652 54.9038C51.968 54.5324 51.1533 53.9867 50.4683 53.2984L52.2114 51.5553C54.0735 53.4155 57.3154 53.4155 59.1796 51.5553C60.1037 50.6312 60.6228 49.378 60.6228 48.0712C60.6228 46.7644 60.1037 45.5111 59.1796 44.587L60.9207 42.8439C61.9546 43.8775 62.6588 45.1945 62.9442 46.6283C63.2296 48.062 63.0834 49.5483 62.5241 50.899C61.9648 52.2497 61.0175 53.4042 59.802 54.2165C58.5865 55.0288 57.1574 55.4624 55.6955 55.4624Z" fill="white"/>
<path d="M45.8406 28.3612H42.145V30.825H45.8406V28.3612Z" fill="#FDD7AD"/>
</svg>
