<svg width="30" height="20" viewBox="0 0 30 20" fill="none" xmlns="http://www.w3.org/2000/svg">
<path d="M0 2H30" stroke="#6CCA98" stroke-width="3"/>
<path d="M0 10H30" stroke="#6CCA98" stroke-width="3"/>
<path d="M0 18H30" stroke="#6CCA98" stroke-width="3"/>
</svg>
