<svg width="22" height="21" viewBox="0 0 22 21" fill="none" xmlns="http://www.w3.org/2000/svg">
<g clip-path="url(#clip0)">
<path d="M6.64353 18.3428C14.5732 18.3428 18.9116 12.0149 18.9116 6.52912C18.9116 6.35123 18.9075 6.16938 18.8993 5.99149C19.7432 5.40376 20.4715 4.67578 21.05 3.84175C20.264 4.1785 19.4295 4.39843 18.575 4.49403C19.4747 3.97467 20.1484 3.15879 20.4712 2.19762C19.6247 2.68068 18.699 3.02144 17.7338 3.20529C17.0834 2.53985 16.2236 2.09925 15.2871 1.95161C14.3506 1.80397 13.3897 1.95751 12.5529 2.3885C11.7162 2.81949 11.0501 3.50391 10.6578 4.33596C10.2655 5.16801 10.1688 6.10134 10.3826 6.99164C8.66863 6.90882 6.9919 6.48007 5.46108 5.7332C3.93025 4.98633 2.5795 3.93801 1.4964 2.65619C0.945915 3.57015 0.777465 4.65165 1.02529 5.68091C1.27311 6.71017 1.91861 7.60994 2.8306 8.19736C2.14594 8.17643 1.47627 7.99892 0.876926 7.67949V7.73089C0.876312 8.69001 1.22065 9.61975 1.85139 10.362C2.48214 11.1043 3.36038 11.6134 4.33681 11.8027C3.70257 11.9698 3.03691 11.9941 2.39134 11.8738C2.66687 12.6987 3.20295 13.4201 3.92477 13.9375C4.64659 14.4548 5.51812 14.7422 6.41775 14.7596C4.89045 15.9149 3.0038 16.5415 1.06166 16.5386C0.717238 16.5381 0.373154 16.5177 0.03125 16.4777C2.00426 17.6966 4.2994 18.344 6.64353 18.3428Z" fill="white"/>
</g>
<defs>
<clipPath id="clip0">
<rect width="21.0187" height="20.2403" fill="white" transform="translate(0.03125)"/>
</clipPath>
</defs>
</svg>
